{	
	"analytical_db":
	{
		"server_host": "analytical-db.csag9hxqzggl.ap-southeast-2.rds.amazonaws.com",
		"port": "5432",
		"database": "postgres"
	}
	,"mongo_db":
	{
		"server_host": "mongodb://54.252.3.131",
		"port": "27017"
	}
}